<svg width="27" height="21" viewBox="0 0 27 21" fill="none" xmlns="http://www.w3.org/2000/svg">
<path d="M9.4548 10.1008C11.1529 10.1008 12.5293 8.72399 12.5293 7.02609C12.5293 5.32799 11.1529 3.95142 9.4548 3.95142C7.75652 3.95142 6.38013 5.32799 6.38013 7.02609C6.38217 8.72325 7.75745 10.0985 9.4548 10.1008ZM9.4548 5.14679C10.4959 5.14679 11.3399 5.99073 11.3399 7.03203C11.3399 8.07315 10.4959 8.91728 9.4548 8.91728C8.41349 8.91728 7.56955 8.07315 7.56955 7.03203C7.56974 5.99091 8.41368 5.14716 9.4548 5.14679Z" fill="#EDEDED"/>
<path d="M9.45469 11.2367C8.19669 11.2274 6.98942 11.7323 6.1124 12.6342C5.22033 13.5442 4.73267 14.7812 4.73267 16.1252C4.7336 16.4532 4.99917 16.719 5.32738 16.7199H13.5818C13.91 16.719 14.1756 16.4532 14.1765 16.1252C14.1765 14.7812 13.6889 13.5442 12.7968 12.6342C11.92 11.7323 10.7125 11.2274 9.45469 11.2367ZM5.96372 15.5305C6.06538 14.7529 6.41608 14.0292 6.96284 13.4668C7.62093 12.801 8.51839 12.4261 9.45469 12.4261C10.3908 12.4261 11.2883 12.801 11.9464 13.4668C12.492 14.0298 12.8423 14.7533 12.9455 15.5305H5.96372Z" fill="#EDEDED"/>
<path d="M-7.53877e-07 2.97358L-1.29979e-07 17.2467C0.000743334 18.8887 1.3316 20.2197 2.97357 20.2203L24.0264 20.2203C25.6684 20.2197 26.9993 18.8887 27 17.2467L27 2.97358C26.9993 1.33161 25.6684 0.000751807 24.0264 8.48651e-06L2.97357 9.40676e-06C1.3316 0.000752871 0.000742566 1.33161 -7.53877e-07 2.97358ZM24.0264 1.18944C25.0105 1.19222 25.8078 1.98951 25.8106 2.97358L25.8106 17.2467C25.8078 18.2308 25.0105 19.0281 24.0264 19.0308L2.97357 19.0308C1.9895 19.0281 1.19221 18.2308 1.18943 17.2467L1.18943 2.97358C1.19221 1.98951 1.9895 1.19223 2.97357 1.18944L24.0264 1.18944Z" fill="#EDEDED"/>
<path d="M16.7683 6.85698H21.526C21.8544 6.85698 22.1207 6.59066 22.1207 6.26227C22.1207 5.93388 21.8544 5.66756 21.526 5.66756H16.7683C16.4397 5.66756 16.1736 5.93388 16.1736 6.26227C16.1736 6.59066 16.4397 6.85698 16.7683 6.85698Z" fill="#EDEDED"/>
<path d="M16.7683 10.2892H21.526C21.8544 10.2892 22.1207 10.0229 22.1207 9.69452C22.1207 9.36613 21.8544 9.09981 21.526 9.09981H16.7683C16.4397 9.09981 16.1736 9.36613 16.1736 9.69452C16.1736 10.0229 16.4397 10.2892 16.7683 10.2892Z" fill="#EDEDED"/>
</svg>
