<svg width="27" height="16" viewBox="0 0 27 16" fill="none" xmlns="http://www.w3.org/2000/svg">
<path d="M13.2376 0C8.32735 0 3.87452 2.68642 0.588782 7.04988C0.320666 7.40737 0.320666 7.9068 0.588782 8.26429C3.87452 12.633 8.32735 15.3194 13.2376 15.3194C18.1478 15.3194 22.6006 12.633 25.8863 8.26954C26.1544 7.91205 26.1544 7.41262 25.8863 7.05514C22.6006 2.68642 18.1478 0 13.2376 0ZM13.5898 13.0536C10.3303 13.2586 7.63866 10.5722 7.84369 7.30748C8.01192 4.6158 10.1936 2.43407 12.8853 2.26584C16.1448 2.06081 18.8365 4.74723 18.6314 8.01194C18.4579 10.6984 16.2762 12.8801 13.5898 13.0536ZM13.4268 10.5617C11.6709 10.6721 10.2199 9.22635 10.3356 7.47045C10.425 6.01947 11.6026 4.84712 13.0536 4.75249C14.8095 4.64209 16.2604 6.08781 16.1448 7.84371C16.0501 9.29995 14.8725 10.4723 13.4268 10.5617Z" fill="#EDEDED"/>
</svg>
