<svg width="18" height="18" viewBox="0 0 18 18" fill="none" xmlns="http://www.w3.org/2000/svg">
<circle cx="9" cy="9" r="9" fill="#2864F0"/>
<path fill-rule="evenodd" clip-rule="evenodd" d="M14.6705 4.5455C15.1098 4.98483 15.1098 5.69714 14.6705 6.13648L9.04963 11.7573C8.84024 11.9667 8.50075 11.9667 8.29136 11.7573L5.29549 8.76149C4.85616 8.32215 4.85616 7.60984 5.29549 7.1705C5.73483 6.73116 6.44714 6.73115 6.88648 7.17049L8.6705 8.9545L13.0795 4.5455C13.5188 4.10616 14.2312 4.10616 14.6705 4.5455Z" fill="white"/>
</svg>
