<svg width="26" height="20" viewBox="0 0 26 20" fill="none" xmlns="http://www.w3.org/2000/svg">
<path d="M23.1113 0.611118H10.1113V10H26.0002V3.5C26.0002 1.90458 24.7067 0.611118 23.1113 0.611118Z" fill="#FCD116"/>
<path d="M10.1113 19.3889H23.1113C24.7068 19.3889 26.0002 18.0954 26.0002 16.5V10H10.1113V19.3889Z" fill="#E8112D"/>
<path d="M10.1111 0.611113H2.88888C1.29353 0.611113 0 1.90457 0 3.49999V10V16.5C0 18.0954 1.29353 19.3889 2.88888 19.3889H10.1111V10V0.611113Z" fill="#008751"/>
</svg>
