<svg width="36" height="36" viewBox="0 0 36 36" fill="none" xmlns="http://www.w3.org/2000/svg">
<g filter="url(#filter0_d)">
<circle cx="18" cy="16" r="16" fill="#2864F0"/>
</g>
<path d="M25.579 14.7268L19.2796 7.85986V11.9568H17.9404C13.7875 11.9568 10.4211 15.3035 10.4211 19.4319V21.6031L11.016 20.955C13.0385 18.752 15.9003 17.4968 18.9006 17.4968H19.2796V21.5938L25.579 14.7268Z" fill="white"/>
<defs>
<filter id="filter0_d" x="0.354192" y="0" width="35.2916" height="35.2916" filterUnits="userSpaceOnUse" color-interpolation-filters="sRGB">
<feFlood flood-opacity="0" result="BackgroundImageFix"/>
<feColorMatrix in="SourceAlpha" type="matrix" values="0 0 0 0 0 0 0 0 0 0 0 0 0 0 0 0 0 0 127 0"/>
<feOffset dy="1.64581"/>
<feGaussianBlur stdDeviation="0.822904"/>
<feColorMatrix type="matrix" values="0 0 0 0 0 0 0 0 0 0 0 0 0 0 0 0 0 0 0.1 0"/>
<feBlend mode="normal" in2="BackgroundImageFix" result="effect1_dropShadow"/>
<feBlend mode="normal" in="SourceGraphic" in2="effect1_dropShadow" result="shape"/>
</filter>
</defs>
</svg>
