<svg width="20" height="27" viewBox="0 0 20 27" fill="none" xmlns="http://www.w3.org/2000/svg">
<path d="M9.97283 19.51C9.76789 19.51 9.60156 19.3337 9.60156 19.1164L9.6023 10.2383C9.6023 10.021 9.76863 9.84473 9.97358 9.84473C10.1785 9.84473 10.3448 10.021 10.3448 10.2383L10.3441 19.1164C10.3441 19.3337 10.1778 19.51 9.97283 19.51Z" fill="#C4C4C4"/>
<path d="M13.1755 14.0262C13.0805 14.0262 12.9854 13.9876 12.9126 13.9113L9.97293 10.795L7.03323 13.9113C6.88843 14.0648 6.65305 14.0648 6.50825 13.9113C6.36346 13.7578 6.36346 13.5083 6.50825 13.3548L9.71082 9.95985C9.85561 9.80635 10.091 9.80635 10.2358 9.95985L13.4384 13.3548C13.5832 13.5083 13.5832 13.7578 13.4384 13.9113C13.3656 13.9876 13.2705 14.0262 13.1755 14.0262Z" fill="#C4C4C4"/>
<path d="M18.0904 26.2061H1.85634C0.833127 26.2061 0 25.3237 0 24.2382V1.96784C0 0.882378 0.833127 0 1.85634 0H13.6456C13.8505 0 14.0169 0.176318 14.0169 0.393568C14.0169 0.610817 13.8505 0.787135 13.6456 0.787135H1.85634C1.24226 0.787135 0.742537 1.31688 0.742537 1.96784V24.2382C0.742537 24.8892 1.24226 25.419 1.85634 25.419H18.0904C18.7045 25.419 19.2042 24.8892 19.2042 24.2382V6.85122C19.2042 6.63397 19.3706 6.45766 19.5755 6.45766C19.7804 6.45766 19.9468 6.63397 19.9468 6.85122V24.239C19.9468 25.3237 19.1144 26.2061 18.0904 26.2061Z" fill="#C4C4C4"/>
<path d="M19.5753 7.2449H13.6454C13.4405 7.2449 13.2742 7.06858 13.2742 6.85134V0.564467C13.2742 0.347217 13.4405 0.170898 13.6454 0.170898C13.8504 0.170898 14.0167 0.347217 14.0167 0.564467V6.45698H19.5753C19.7803 6.45698 19.9466 6.6333 19.9466 6.85055C19.9466 7.0678 19.781 7.2449 19.5753 7.2449Z" fill="#C4C4C4"/>
<path d="M19.5756 7.24475C19.479 7.24475 19.3825 7.20461 19.3097 7.12589L13.3798 0.669004C13.2373 0.513938 13.2402 0.263628 13.3872 0.112497C13.5335 -0.0394202 13.7689 -0.0354845 13.9122 0.120369L19.8421 6.57726C19.9847 6.73232 19.9817 6.98263 19.8347 7.13376C19.7627 7.20775 19.6691 7.24475 19.5756 7.24475Z" fill="#C4C4C4"/>
</svg>
