<svg width="22" height="22" viewBox="0 0 22 22" fill="none" xmlns="http://www.w3.org/2000/svg">
<path d="M21.1274 5.94938C20.5458 5.36766 19.8495 5.07685 19.0385 5.07685H10.1539V4.65378C10.1539 3.84289 9.86291 3.14656 9.28129 2.56498C8.69957 1.98326 8.00319 1.69226 7.1923 1.69226H2.96152C2.15044 1.69226 1.45416 1.98321 0.872531 2.56498C0.290813 3.14656 0 3.84289 0 4.65378V17.3462C0 18.1569 0.290813 18.8533 0.872531 19.4349C1.45425 20.0167 2.15063 20.3077 2.96152 20.3077H19.0384C19.8495 20.3077 20.5458 20.0168 21.1274 19.4349C21.7093 18.8532 22 18.1569 22 17.3462V8.03856C22 7.22762 21.7093 6.53133 21.1274 5.94938ZM20.3076 17.3462C20.3076 17.6986 20.1844 17.9988 19.9376 18.2454C19.6909 18.4919 19.3912 18.6152 19.0385 18.6152H2.96152C2.60893 18.6152 2.30932 18.4919 2.0625 18.2454C1.81568 17.9988 1.69236 17.6986 1.69236 17.3462V4.65397C1.69236 4.30152 1.81568 4.00177 2.0625 3.75495C2.30914 3.50827 2.60889 3.38481 2.96152 3.38481H7.19243C7.54502 3.38481 7.84477 3.50813 8.09159 3.75495C8.33827 4.00177 8.46173 4.30152 8.46173 4.65397V5.5002C8.46173 5.85288 8.58509 6.15235 8.83191 6.39922C9.0786 6.6459 9.37825 6.7694 9.73094 6.7694H19.0385C19.3912 6.7694 19.6909 6.89286 19.9376 7.13954C20.1844 7.38617 20.3076 7.68592 20.3076 8.03856V17.3462Z" fill="#2864F0"/>
</svg>
